{
  "$schema": "http://json-schema.org/draft-04/schema#",
  "title": "Input Ingredients",
  "description": "Input Ingredients for lunch",
  "type": "object",
  "properties": {
    "ingredients": {
      "description": "Input ingredients",
      "type": "array",
      "items": {
        "title": "Input Ingredient",
        "description": "Input Ingredient for lunch",
        "type": "object",
        "properties": {
          "title": {
            "description": "Ingredient name",
            "type": "string"
          },
          "best-before": {
            "description": "Best before date",
            "type":"string",
            "pattern": "^[0-9]{4}-(0[1-9]|1[0-2])-(0[1-9]|[1-2][0-9]|3[0-1])$"
          },
          "use-by": {
            "description": "Use by date",
            "type": "string",
            "pattern": "^[0-9]{4}-(0[1-9]|1[0-2])-(0[1-9]|[1-2][0-9]|3[0-1])$"
          }
        },
        "required": ["title", "best-before", "use-by"]
      }
    }
  },
  "required": ["ingredients"]
}